Electronics_for_Sciences/Informe 4/1 khz RC.csv

Record Length,2500,Points,-1.2900000E-3,-1.0400000,,Record Length,2500,Points,-1.2900000E-3,-39.99999911E-3,
Sample Interval,1.000000E-6,s,-1.2890000E-3,-1.0400000,,Sample Interval,1.000000E-6,s,-1.2890000E-3,-19.9999996E-3,
Trigger Point,1.2900001E3,Samples,-1.2880000E-3,-1.0400000,,Trigger Point,1.2900001E3,Samples,-1.2880000E-3,-39.99999911E-3,
,,,-1.2870000E-3,-1.000000,,,,,-1.2870000E-3,-39.99999911E-3,
,,,-1.2860000E-3,-1.0400000,,,,,-1.2860000E-3,-59.999998659E-3,
,,,-1.2850000E-3,-1.0400000,,,,,-1.2850000E-3,-39.99999911E-3,
Source,CH1,,-1.2840000E-3,-1.000000,,Source,CH2,,-1.2840000E-3,-59.999998659E-3,
Vertical Units,Volts,,-1.2830000E-3,-1.000000,,Vertical Units,Volts,,-1.2830000E-3,-39.99999911E-3,
Vertical Scale,999.999977648E-3,,-1.2820001E-3,-1.000000,,Vertical Scale,499.999988824E-3,,-1.2820001E-3,-59.999998659E-3,
Vertical Offset,0,,-1.2810001E-3,-1.0400000,,Vertical Offset,0,,-1.2810001E-3,-59.999998659E-3,
Horizontal Units,s,,-1.2800001E-3,-1.0400000,,Horizontal Units,s,,-1.2800001E-3,-39.99999911E-3,
Horizontal Scale,249.99999937E-6,,-1.2790001E-3,-1.0400000,,Horizontal Scale,249.99999937E-6,,-1.2790001E-3,-59.999998659E-3,
Pt Fmt,Y,,-1.2780001E-3,-1.000000,,Pt Fmt,Y,,-1.2780001E-3,-39.99999911E-3,
Yzero,2.2800000,,-1.2770001E-3,-1.000000,,Yzero,1.9200000,,-1.2770001E-3,-39.99999911E-3,
Probe Atten,1.000000,,-1.2760001E-3,-1.0400000,,Probe Atten,1.000000,,-1.2760001E-3,-59.999998659E-3,
,,,-1.2750000E-3,-1.0400000,,,,,-1.2750000E-3,-59.999998659E-3,
Note,TBS 1102B-EDU - 16:55:32   7/03/2024,,-1.2740000E-3,-1.0400000,,Note,TBS 1102B-EDU - 16:55:32   7/03/2024,,-1.2740000E-3,-59.999998659E-3,
,,,-1.2730000E-3,-1.0400000,,,,,-1.2730000E-3,-59.999998659E-3,
,,,-1.2720000E-3,-1.0400000,,,,,-1.2720000E-3,-39.99999911E-3,
,,,-1.2710000E-3,-1.0400000,,,,,-1.2710000E-3,-59.999998659E-3,
,,,-1.2700000E-3,-1.000000,,,,,-1.2700000E-3,-39.99999911E-3,
,,,-1.2690000E-3,-1.0400000,,,,,-1.2690000E-3,-79.999998212E-3,
,,,-1.2680000E-3,-1.0400000,,,,,-1.2680000E-3,-59.999998659E-3,
,,,-1.2670001E-3,-1.0400000,,,,,-1.2670001E-3,-59.999998659E-3,
,,,-1.2660001E-3,-1.000000,,,,,-1.2660001E-3,-79.999998212E-3,
,,,-1.2650001E-3,-1.0400000,,,,,-1.2650001E-3,-59.999998659E-3,
,,,-1.2640001E-3,-1.0400000,,,,,-1.2640001E-3,-79.999998212E-3,
,,,-1.2630001E-3,-1.0400000,,,,,-1.2630001E-3,-59.999998659E-3,
,,,-1.2620001E-3,-1.000000,,,,,-1.2620001E-3,-79.999998212E-3,
,,,-1.2610001E-3,-1.000000,,,,,-1.2610001E-3,-79.999998212E-3,
,,,-1.2600000E-3,-1.0400000,,,,,-1.2600000E-3,-79.999998212E-3,
,,,-1.2590000E-3,-1.000000,,,,,-1.2590000E-3,-79.999998212E-3,
,,,-1.2580000E-3,-1.0400000,,,,,-1.2580000E-3,-79.999998212E-3,
,,,-1.2570000E-3,-1.0400000,,,,,-1.2570000E-3,-79.999998212E-3,
,,,-1.2560000E-3,-1.0400000,,,,,-1.2560000E-3,-79.999998212E-3,
,,,-1.2550000E-3,-1.000000,,,,,-1.2550000E-3,-99.999994040E-3,
,,,-1.2540000E-3,-1.000000,,,,,-1.2540000E-3,-99.999994040E-3,
,,,-1.2530000E-3,-1.0400000,,,,,-1.2530000E-3,-79.999998212E-3,
,,,-1.2520000E-3,-1.000000,,,,,-1.2520000E-3,-99.999994040E-3,
,,,-1.2510001E-3,-1.000000,,,,,-1.2510001E-3,-99.999994040E-3,
,,,-1.2500001E-3,-1.000000,,,,,-1.2500001E-3,-79.999998212E-3,
,,,-1.2490001E-3,-1.000000,,,,,-1.2490001E-3,-99.999994040E-3,
,,,-1.2480001E-3,-1.0400000,,,,,-1.2480001E-3,-99.999994040E-3,
,,,-1.2470001E-3,-1.000000,,,,,-1.2470001E-3,-79.999998212E-3,
,,,-1.2460001E-3,-1.000000,,,,,-1.2460001E-3,-79.999998212E-3,
,,,-1.2450001E-3,-1.000000,,,,,-1.2450001E-3,-79.999998212E-3,
,,,-1.2440000E-3,-1.000000,,,,,-1.2440000E-3,-79.999998212E-3,
,,,-1.2430000E-3,-959.999978542E-3,,,,,-1.2430000E-3,-99.999994040E-3,
,,,-1.2420000E-3,-1.000000,,,,,-1.2420000E-3,-99.999994040E-3,
,,,-1.2410000E-3,-1.000000,,,,,-1.2410000E-3,-99.999994040E-3,
,,,-1.2400000E-3,-1.000000,,,,,-1.2400000E-3,-79.999998212E-3,
,,,-1.2390000E-3,-1.000000,,,,,-1.2390000E-3,-99.999994040E-3,
,,,-1.2380000E-3,-1.000000,,,,,-1.2380000E-3,-119.9999973E-3,
,,,-1.2370000E-3,-1.000000,,,,,-1.2370000E-3,-99.999994040E-3,
,,,-1.2360001E-3,-1.000000,,,,,-1.2360001E-3,-119.9999973E-3,
,,,-1.2350001E-3,-1.000000,,,,,-1.2350001E-3,-119.9999973E-3,
,,,-1.2340001E-3,-959.999978542E-3,,,,,-1.2340001E-3,-99.999994040E-3,
,,,-1.2330001E-3,-1.000000,,,,,-1.2330001E-3,-119.9999973E-3,
,,,-1.2320001E-3,-1.000000,,,,,-1.2320001E-3,-119.9999973E-3,
,,,-1.2310001E-3,-959.999978542E-3,,,,,-1.2310001E-3,-99.999994040E-3,
,,,-1.2300001E-3,-959.999978542E-3,,,,,-1.2300001E-3,-99.999994040E-3,
,,,-1.2290000E-3,-1.000000,,,,,-1.2290000E-3,-99.999994040E-3,
,,,-1.2280000E-3,-959.999978542E-3,,,,,-1.2280000E-3,-99.999994040E-3,
,,,-1.2270000E-3,-1.000000,,,,,-1.2270000E-3,-119.9999973E-3,
,,,-1.2260000E-3,-959.999978542E-3,,,,,-1.2260000E-3,-119.9999973E-3,
,,,-1.2250000E-3,-959.999978542E-3,,,,,-1.2250000E-3,-99.999994040E-3,
,,,-1.2240000E-3,-1.000000,,,,,-1.2240000E-3,-119.9999973E-3,
,,,-1.2230000E-3,-959.999978542E-3,,,,,-1.2230000E-3,-119.9999973E-3,
,,,-1.2220000E-3,-959.999978542E-3,,,,,-1.2220000E-3,-119.9999973E-3,
,,,-1.2210001E-3,-959.999978542E-3,,,,,-1.2210001E-3,-119.9999973E-3,
,,,-1.2200001E-3,-959.999978542E-3,,,,,-1.2200001E-3,-99.999994040E-3,
,,,-1.2190001E-3,-959.999978542E-3,,,,,-1.2190001E-3,-119.9999973E-3,
,,,-1.2180001E-3,-959.999978542E-3,,,,,-1.2180001E-3,-140.0000006E-3,
,,,-1.2170001E-3,-959.999978542E-3,,,,,-1.2170001E-3,-119.9999973E-3,
,,,-1.2160001E-3,-959.999978542E-3,,,,,-1.2160001E-3,-119.9999973E-3,
,,,-1.2150001E-3,-919.999957085E-3,,,,,-1.2150001E-3,-140.0000006E-3,
,,,-1.2140000E-3,-919.999957085E-3,,,,,-1.2140000E-3,-140.0000006E-3,
,,,-1.2130000E-3,-959.999978542E-3,,,,,-1.2130000E-3,-119.9999973E-3,
,,,-1.2120000E-3,-919.999957085E-3,,,,,-1.2120000E-3,-140.0000006E-3,
,,,-1.2110000E-3,-919.999957085E-3,,,,,-1.2110000E-3,-140.0000006E-3,
,,,-1.2100000E-3,-919.999957085E-3,,,,,-1.2100000E-3,-140.0000006E-3,
,,,-1.2090000E-3,-919.999957085E-3,,,,,-1.2090000E-3,-140.0000006E-3,
,,,-1.2080000E-3,-959.999978542E-3,,,,,-1.2080000E-3,-140.0000006E-3,
,,,-1.2070000E-3,-919.999957085E-3,,,,,-1.2070000E-3,-140.0000006E-3,
,,,-1.2060000E-3,-919.999957085E-3,,,,,-1.2060000E-3,-140.0000006E-3,
,,,-1.2050001E-3,-919.999957085E-3,,,,,-1.2050001E-3,-140.0000006E-3,
,,,-1.2040001E-3,-879.999995232E-3,,,,,-1.2040001E-3,-140.0000006E-3,
,,,-1.2030001E-3,-879.999995232E-3,,,,,-1.2030001E-3,-140.0000006E-3,
,,,-1.2020001E-3,-879.999995232E-3,,,,,-1.2020001E-3,-159.99999642E-3,
,,,-1.2010001E-3,-879.999995232E-3,,,,,-1.2010001E-3,-140.0000006E-3,
,,,-1.2000001E-3,-879.999995232E-3,,,,,-1.2000001E-3,-140.0000006E-3,
,,,-1.1990000E-3,-879.999995232E-3,,,,,-1.1990000E-3,-159.99999642E-3,
,,,-1.1980000E-3,-879.999995232E-3,,,,,-1.1980000E-3,-140.0000006E-3,
,,,-1.1970000E-3,-919.999957085E-3,,,,,-1.1970000E-3,-140.0000006E-3,
,,,-1.1960000E-3,-879.999995232E-3,,,,,-1.1960000E-3,-159.99999642E-3,
,,,-1.1950000E-3,-879.999995232E-3,,,,,-1.1950000E-3,-159.99999642E-3,
,,,-1.1940000E-3,-879.999995232E-3,,,,,-1.1940000E-3,-159.99999642E-3,
,,,-1.1930000E-3,-879.999995232E-3,,,,,-1.1930000E-3,-140.0000006E-3,
,,,-1.1920000E-3,-879.999995232E-3,,,,,-1.1920000E-3,-140.0000006E-3,
,,,-1.1910000E-3,-839.999973774E-3,,,,,-1.1910000E-3,-159.99999642E-3,
,,,-1.1900001E-3,-879.999995232E-3,,,,,-1.1900001E-3,-140.0000006E-3,
,,,-1.1890001E-3,-879.999995232E-3,,,,,-1.1890001E-3,-159.99999642E-3,
,,,-1.1880001E-3,-839.999973774E-3,,,,,-1.1880001E-3,-159.99999642E-3,
,,,-1.1870001E-3,-839.999973774E-3,,,,,-1.1870001E-3,-159.99999642E-3,
,,,-1.1860001E-3,-839.999973774E-3,,,,,-1.1860001E-3,-159.99999642E-3,
,,,-1.1850001E-3,-879.999995232E-3,,,,,-1.1850001E-3,-159.99999642E-3,
,,,-1.1840001E-3,-839.999973774E-3,,,,,-1.1840001E-3,-179.99999225E-3,
,,,-1.1830000E-3,-839.999973774E-3,,,,,-1.1830000E-3,-159.99999642E-3,
,,,-1.1820000E-3,-839.999973774E-3,,,,,-1.1820000E-3,-159.99999642E-3,
,,,-1.1810000E-3,-839.999973774E-3,,,,,-1.1810000E-3,-159.99999642E-3,
,,,-1.1800000E-3,-839.999973774E-3,,,,,-1.1800000E-3,-159.99999642E-3,
,,,-1.1790000E-3,-839.999973774E-3,,,,,-1.1790000E-3,-159.99999642E-3,
,,,-1.1780000E-3,-839.999973774E-3,,,,,-1.1780000E-3,-179.99999225E-3,
,,,-1.1770000E-3,-839.999973774E-3,,,,,-1.1770000E-3,-159.99999642E-3,
,,,-1.1760000E-3,-839.999973774E-3,,,,,-1.1760000E-3,-159.99999642E-3,
,,,-1.1750001E-3,-839.999973774E-3,,,,,-1.1750001E-3,-179.99999225E-3,
,,,-1.1740001E-3,-799.999952316E-3,,,,,-1.1740001E-3,-159.99999642E-3,
,,,-1.1730001E-3,-839.999973774E-3,,,,,-1.1730001E-3,-179.99999225E-3,
,,,-1.1720001E-3,-799.999952316E-3,,,,,-1.1720001E-3,-159.99999642E-3,
,,,-1.1710001E-3,-799.999952316E-3,,,,,-1.1710001E-3,-179.99999225E-3,
,,,-1.1700001E-3,-799.999952316E-3,,,,,-1.1700001E-3,-179.99999225E-3,
,,,-1.1690001E-3,-799.999952316E-3,,,,,-1.1690001E-3,-159.99999642E-3,
,,,-1.1680000E-3,-799.999952316E-3,,,,,-1.1680000E-3,-179.99999225E-3,
,,,-1.1670000E-3,-799.999952316E-3,,,,,-1.1670000E-3,-159.99999642E-3,
,,,-1.1660000E-3,-759.999990463E-3,,,,,-1.1660000E-3,-159.99999642E-3,
,,,-1.1650000E-3,-799.999952316E-3,,,,,-1.1650000E-3,-179.99999225E-3,
,,,-1.1640000E-3,-759.999990463E-3,,,,,-1.1640000E-3,-159.99999642E-3,
,,,-1.1630000E-3,-759.999990463E-3,,,,,-1.1630000E-3,-179.99999225E-3,
,,,-1.1620000E-3,-759.999990463E-3,,,,,-1.1620000E-3,-179.99999225E-3,
,,,-1.1610000E-3,-759.999990463E-3,,,,,-1.1610000E-3,-179.99999225E-3,
,,,-1.1600001E-3,-759.999990463E-3,,,,,-1.1600001E-3,-179.99999225E-3,
,,,-1.1590001E-3,-759.999990463E-3,,,,,-1.1590001E-3,-179.99999225E-3,
,,,-1.1580001E-3,-759.999990463E-3,,,,,-1.1580001E-3,-179.99999225E-3,
,,,-1.1570001E-3,-759.999990463E-3,,,,,-1.1570001E-3,-179.99999225E-3,
,,,-1.1560001E-3,-719.999969006E-3,,,,,-1.1560001E-3,-179.99999225E-3,
,,,-1.1550001E-3,-759.999990463E-3,,,,,-1.1550001E-3,-159.99999642E-3,
,,,-1.1540001E-3,-719.999969006E-3,,,,,-1.1540001E-3,-179.99999225E-3,
,,,-1.1530000E-3,-719.999969006E-3,,,,,-1.1530000E-3,-199.99998808E-3,
,,,-1.1520000E-3,-759.999990463E-3,,,,,-1.1520000E-3,-199.99998808E-3,
,,,-1.1510000E-3,-719.999969006E-3,,,,,-1.1510000E-3,-199.99998808E-3,
,,,-1.1500000E-3,-719.999969006E-3,,,,,-1.1500000E-3,-199.99998808E-3,
,,,-1.1490000E-3,-719.999969006E-3,,,,,-1.1490000E-3,-199.99998808E-3,
,,,-1.1480000E-3,-719.999969006E-3,,,,,-1.1480000E-3,-179.99999225E-3,
,,,-1.1470000E-3,-719.999969006E-3,,,,,-1.1470000E-3,-179.99999225E-3,
,,,-1.1460000E-3,-719.999969006E-3,,,,,-1.1460000E-3,-199.99998808E-3,
,,,-1.1450000E-3,-680.000007153E-3,,,,,-1.1450000E-3,-199.99998808E-3,
,,,-1.1440001E-3,-680.000007153E-3,,,,,-1.1440001E-3,-179.99999225E-3,
,,,-1.1430001E-3,-680.000007153E-3,,,,,-1.1430001E-3,-199.99998808E-3,
,,,-1.1420001E-3,-639.999985695E-3,,,,,-1.1420001E-3,-199.99998808E-3,
,,,-1.1410001E-3,-680.000007153E-3,,,,,-1.1410001E-3,-199.99998808E-3,
,,,-1.1400001E-3,-639.999985695E-3,,,,,-1.1400001E-3,-199.99998808E-3,
,,,-1.1390001E-3,-680.000007153E-3,,,,,-1.1390001E-3,-159.99999642E-3,
,,,-1.1380001E-3,-639.999985695E-3,,,,,-1.1380001E-3,-199.99998808E-3,
,,,-1.1370000E-3,-680.000007153E-3,,,,,-1.1370000E-3,-199.99998808E-3,
,,,-1.1360000E-3,-639.999985695E-3,,,,,-1.1360000E-3,-199.99998808E-3,
,,,-1.1350000E-3,-639.999985695E-3,,,,,-1.1350000E-3,-199.99998808E-3,
,,,-1.1340000E-3,-639.999985695E-3,,,,,-1.1340000E-3,-199.99998808E-3,
,,,-1.1330000E-3,-599.999964237E-3,,,,,-1.1330000E-3,-199.99998808E-3,
,,,-1.1320000E-3,-639.999985695E-3,,,,,-1.1320000E-3,-199.99998808E-3,
,,,-1.1310000E-3,-599.999964237E-3,,,,,-1.1310000E-3,-199.99998808E-3,
,,,-1.1300000E-3,-599.999964237E-3,,,,,-1.1300000E-3,-199.99998808E-3,
,,,-1.1290001E-3,-599.999964237E-3,,,,,-1.1290001E-3,-199.99998808E-3,
,,,-1.1280001E-3,-599.999964237E-3,,,,,-1.1280001E-3,-199.99998808E-3,
,,,-1.1270001E-3,-599.999964237E-3,,,,,-1.1270001E-3,-199.99998808E-3,
,,,-1.1260001E-3,-599.999964237E-3,,,,,-1.1260001E-3,-219.99999881E-3,
,,,-1.1250001E-3,-599.999964237E-3,,,,,-1.1250001E-3,-199.99998808E-3,
,,,-1.1240001E-3,-599.999964237E-3,,,,,-1.1240001E-3,-199.99998808E-3,
,,,-1.1230001E-3,-560.000002384E-3,,,,,-1.1230001E-3,-199.99998808E-3,
,,,-1.1220000E-3,-560.000002384E-3,,,,,-1.1220000E-3,-199.99998808E-3,
,,,-1.1210000E-3,-519.999980927E-3,,,,,-1.1210000E-3,-199.99998808E-3,
,,,-1.1200000E-3,-560.000002384E-3,,,,,-1.1200000E-3,-199.99998808E-3,
,,,-1.1190000E-3,-560.000002384E-3,,,,,-1.1190000E-3,-199.99998808E-3,
,,,-1.1180000E-3,-560.000002384E-3,,,,,-1.1180000E-3,-199.99998808E-3,
,,,-1.1170000E-3,-560.000002384E-3,,,,,-1.1170000E-3,-219.99999881E-3,
,,,-1.1160000E-3,-519.999980927E-3,,,,,-1.1160000E-3,-199.99998808E-3,
,,,-1.1150000E-3,-519.999980927E-3,,,,,-1.1150000E-3,-199.99998808E-3,
,,,-1.1140001E-3,-519.999980927E-3,,,,,-1.1140001E-3,-219.99999881E-3,
,,,-1.1130001E-3,-519.999980927E-3,,,,,-1.1130001E-3,-199.99998808E-3,
,,,-1.1120001E-3,-519.999980927E-3,,,,,-1.1120001E-3,-199.99998808E-3,
,,,-1.1110001E-3,-519.999980927E-3,,,,,-1.1110001E-3,-199.99998808E-3,
,,,-1.1100001E-3,-519.999980927E-3,,,,,-1.1100001E-3,-199.99998808E-3,
,,,-1.1090001E-3,-519.999980927E-3,,,,,-1.1090001E-3,-199.99998808E-3,
,,,-1.1080001E-3,-519.999980927E-3,,,,,-1.1080001E-3,-219.99999881E-3,
,,,-1.1070000E-3,-519.999980927E-3,,,,,-1.1070000E-3,-239.99999464E-3,
,,,-1.1060000E-3,-479.999989271E-3,,,,,-1.1060000E-3,-199.99998808E-3,
,,,-1.1050000E-3,-479.999989271E-3,,,,,-1.1050000E-3,-199.99998808E-3,
,,,-1.1040000E-3,-439.999997616E-3,,,,,-1.1040000E-3,-199.99998808E-3,
,,,-1.1030000E-3,-439.999997616E-3,,,,,-1.1030000E-3,-219.99999881E-3,
,,,-1.1020000E-3,-439.999997616E-3,,,,,-1.1020000E-3,-219.99999881E-3,
,,,-1.1010000E-3,-479.999989271E-3,,,,,-1.1010000E-3,-199.99998808E-3,
,,,-1.1000000E-3,-439.999997616E-3,,,,,-1.1000000E-3,-219.99999881E-3,
,,,-1.0990000E-3,-439.999997616E-3,,,,,-1.0990000E-3,-219.99999881E-3,
,,,-1.0980001E-3,-479.999989271E-3,,,,,-1.0980001E-3,-199.99998808E-3,
,,,-1.0970001E-3,-439.999997616E-3,,,,,-1.0970001E-3,-199.99998808E-3,
,,,-1.0960001E-3,-439.999997616E-3,,,,,-1.0960001E-3,-219.99999881E-3,
,,,-1.0950001E-3,-439.999997616E-3,,,,,-1.0950001E-3,-199.99998808E-3,
,,,-1.0940001E-3,-439.999997616E-3,,,,,-1.0940001E-3,-199.99998808E-3,
,,,-1.0930001E-3,-399.99997616E-3,,,,,-1.0930001E-3,-219.99999881E-3,
,,,-1.0920000E-3,-399.99997616E-3,,,,,-1.0920000E-3,-219.99999881E-3,
,,,-1.0910000E-3,-399.99997616E-3,,,,,-1.0910000E-3,-199.99998808E-3,
,,,-1.0900000E-3,-359.99998450E-3,,,,,-1.0900000E-3,-219.99999881E-3,
,,,-1.0890000E-3,-399.99997616E-3,,,,,-1.0890000E-3,-219.99999881E-3,
,,,-1.0880000E-3,-399.99997616E-3,,,,,-1.0880000E-3,-219.99999881E-3,
,,,-1.0870000E-3,-359.99998450E-3,,,,,-1.0870000E-3,-219.99999881E-3,
,,,-1.0860000E-3,-399.99997616E-3,,,,,-1.0860000E-3,-219.99999881E-3,
,,,-1.0850000E-3,-359.99998450E-3,,,,,-1.0850000E-3,-199.99998808E-3,
,,,-1.0840000E-3,-359.99998450E-3,,,,,-1.0840000E-3,-219.99999881E-3,
,,,-1.0830001E-3,-359.99998450E-3,,,,,-1.0830001E-3,-199.99998808E-3,
,,,-1.0820001E-3,-359.99998450E-3,,,,,-1.0820001E-3,-219.99999881E-3,
,,,-1.0810001E-3,-359.99998450E-3,,,,,-1.0810001E-3,-219.99999881E-3,
,,,-1.0800001E-3,-359.99998450E-3,,,,,-1.0800001E-3,-199.99998808E-3,
,,,-1.0790001E-3,-319.99999285E-3,,,,,-1.0790001E-3,-219.99999881E-3,
,,,-1.0780001E-3,-319.99999285E-3,,,,,-1.0780001E-3,-219.99999881E-3,
,,,-1.0770001E-3,-319.99999285E-3,,,,,-1.0770001E-3,-219.99999881E-3,
,,,-1.0760000E-3,-319.99999285E-3,,,,,-1.0760000E-3,-199.99998808E-3,
,,,-1.0750000E-3,-280.00000119E-3,,,,,-1.0750000E-3,-219.99999881E-3,
,,,-1.0740000E-3,-280.00000119E-3,,,,,-1.0740000E-3,-239.99999464E-3,
,,,-1.0730000E-3,-280.00000119E-3,,,,,-1.0730000E-3,-219.99999881E-3,
,,,-1.0720000E-3,-280.00000119E-3,,,,,-1.0720000E-3,-219.99999881E-3,
,,,-1.0710000E-3,-239.99999464E-3,,,,,-1.0710000E-3,-219.99999881E-3,
,,,-1.0700000E-3,-239.99999464E-3,,,,,-1.0700000E-3,-219.99999881E-3,
,,,-1.0690000E-3,-239.99999464E-3,,,,,-1.0690000E-3,-199.99998808E-3,
,,,-1.0680001E-3,-280.00000119E-3,,,,,-1.0680001E-3,-219.99999881E-3,
,,,-1.0670001E-3,-239.99999464E-3,,,,,-1.0670001E-3,-219.99999881E-3,
,,,-1.0660001E-3,-239.99999464E-3,,,,,-1.0660001E-3,-219.99999881E-3,
,,,-1.0650001E-3,-239.99999464E-3,,,,,-1.0650001E-3,-199.99998808E-3,
,,,-1.0640001E-3,-239.99999464E-3,,,,,-1.0640001E-3,-219.99999881E-3,
,,,-1.0630001E-3,-239.99999464E-3,,,,,-1.0630001E-3,-219.99999881E-3,
,,,-1.0620001E-3,-199.99998808E-3,,,,,-1.0620001E-3,-239.99999464E-3,
,,,-1.0610000E-3,-199.99998808E-3,,,,,-1.0610000E-3,-219.99999881E-3,
,,,-1.0600000E-3,-199.99998808E-3,,,,,-1.0600000E-3,-219.99999881E-3,
,,,-1.0590000E-3,-199.99998808E-3,,,,,-1.0590000E-3,-219.99999881E-3,
,,,-1.0580000E-3,-199.99998808E-3,,,,,-1.0580000E-3,-239.99999464E-3,
,,,-1.0570000E-3,-239.99999464E-3,,,,,-1.0570000E-3,-219.99999881E-3,
,,,-1.0560000E-3,-199.99998808E-3,,,,,-1.0560000E-3,-219.99999881E-3,
,,,-1.0550000E-3,-159.99999642E-3,,,,,-1.0550000E-3,-199.99998808E-3,
,,,-1.0540000E-3,-199.99998808E-3,,,,,-1.0540000E-3,-219.99999881E-3,
,,,-1.0530001E-3,-159.99999642E-3,,,,,-1.0530001E-3,-219.99999881E-3,
,,,-1.0520001E-3,-159.99999642E-3,,,,,-1.0520001E-3,-219.99999881E-3,
,,,-1.0510001E-3,-159.99999642E-3,,,,,-1.0510001E-3,-219.99999881E-3,
,,,-1.0500001E-3,-119.9999973E-3,,,,,-1.0500001E-3,-219.99999881E-3,
,,,-1.0490001E-3,-159.99999642E-3,,,,,-1.0490001E-3,-199.99998808E-3,
,,,-1.0480001E-3,-159.99999642E-3,,,,,-1.0480001E-3,-219.99999881E-3,
,,,-1.0470001E-3,-119.9999973E-3,,,,,-1.0470001E-3,-219.99999881E-3,
,,,-1.0460000E-3,-159.99999642E-3,,,,,-1.0460000E-3,-219.99999881E-3,
,,,-1.0450000E-3,-119.9999973E-3,,,,,-1.0450000E-3,-219.99999881E-3,
,,,-1.0440000E-3,-159.99999642E-3,,,,,-1.0440000E-3,-199.99998808E-3,
,,,-1.0430000E-3,-119.9999973E-3,,,,,-1.0430000E-3,-199.99998808E-3,
,,,-1.0420000E-3,-79.999998212E-3,,,,,-1.0420000E-3,-219.99999881E-3,
,,,-1.0410000E-3,-79.999998212E-3,,,,,-1.0410000E-3,-199.99998808E-3,
,,,-1.0400000E-3,-79.999998212E-3,,,,,-1.0400000E-3,-199.99998808E-3,
,,,-1.0390000E-3,-119.9999973E-3,,,,,-1.0390000E-3,-219.99999881E-3,
,,,-1.0380000E-3,-79.999998212E-3,,,,,-1.0380000E-3,-219.99999881E-3,
,,,-1.0370001E-3,-79.999998212E-3,,,,,-1.0370001E-3,-219.99999881E-3,
,,,-1.0360001E-3,-79.999998212E-3,,,,,-1.0360001E-3,-219.99999881E-3,
,,,-1.0350001E-3,-79.999998212E-3,,,,,-1.0350001E-3,-219.99999881E-3,
,,,-1.0340001E-3,-79.999998212E-3,,,,,-1.0340001E-3,-239.99999464E-3,
,,,-1.0330001E-3,-79.999998212E-3,,,,,-1.0330001E-3,-219.99999881E-3,
,,,-1.0320001E-3,-39.99999911E-3,,,,,-1.0320001E-3,-219.99999881E-3,
,,,-1.0310001E-3,-39.99999911E-3,,,,,-1.0310001E-3,-219.99999881E-3,
,,,-1.0300000E-3,0.0,,,,,-1.0300000E-3,-219.99999881E-3,
,,,-1.0290000E-3,0.0,,,,,-1.0290000E-3,-199.99998808E-3,
,,,-1.0280000E-3,-39.99999911E-3,,,,,-1.0280000E-3,-219.99999881E-3,
,,,-1.0270000E-3,0.0,,,,,-1.0270000E-3,-199.99998808E-3,
,,,-1.0260000E-3,0.0,,,,,-1.0260000E-3,-219.99999881E-3,
,,,-1.0250000E-3,0.0,,,,,-1.0250000E-3,-199.99998808E-3,
,,,-1.0240000E-3,0.0,,,,,-1.0240000E-3,-199.99998808E-3,
,,,-1.0230000E-3,39.99999911E-3,,,,,-1.0230000E-3,-199.99998808E-3,
,,,-1.0220001E-3,39.99999911E-3,,,,,-1.0220001E-3,-199.99998808E-3,
,,,-1.0210001E-3,0.0,,,,,-1.0210001E-3,-199.99998808E-3,
,,,-1.0200001E-3,39.99999911E-3,,,,,-1.0200001E-3,-199.99998808E-3,
,,,-1.0190001E-3,39.99999911E-3,,,,,-1.0190001E-3,-219.99999881E-3,
,,,-1.0180001E-3,39.99999911E-3,,,,,-1.0180001E-3,-199.99998808E-3,
,,,-1.0170001E-3,39.99999911E-3,,,,,-1.0170001E-3,-199.99998808E-3,
,,,-1.0160001E-3,79.999998212E-3,,,,,-1.0160001E-3,-199.99998808E-3,
,,,-1.0150000E-3,39.99999911E-3,,,,,-1.0150000E-3,-199.99998808E-3,
,,,-1.0140000E-3,79.999998212E-3,,,,,-1.0140000E-3,-199.99998808E-3,
,,,-1.0130000E-3,79.999998212E-3,,,,,-1.0130000E-3,-199.99998808E-3,
,,,-1.0120000E-3,119.9999973E-3,,,,,-1.0120000E-3,-199.99998808E-3,
,,,-1.0110000E-3,119.9999973E-3,,,,,-1.0110000E-3,-199.99998808E-3,
,,,-1.0100000E-3,119.9999973E-3,,,,,-1.0100000E-3,-199.99998808E-3,
,,,-1.0090000E-3,119.9999973E-3,,,,,-1.0090000E-3,-199.99998808E-3,
,,,-1.0080000E-3,119.9999973E-3,,,,,-1.0080000E-3,-199.99998808E-3,
