Electronics_for_Sciences/Informe 4/circuito beta.csv

Record Length,2500,Points,-2.1000002E-3,0.0,
Sample Interval,9.999999747E-6,s,-2.0900001E-3,0.0,
Trigger Point,210.00002110,Samples,-2.0800002E-3,0.0,
,,,-2.0700002E-3,0.0,
,,,-2.0600001E-3,0.0,
,,,-2.0500002E-3,0.0,
Source,CH1,,-2.0400002E-3,0.0,
Vertical Units,Volts,,-2.0300001E-3,0.0,
Vertical Scale,2.0000000,,-2.0200002E-3,0.0,
Vertical Offset,0,,-2.0100002E-3,0.0,
Horizontal Units,s,,-2.0000001E-3,0.0,
Horizontal Scale,2.4999999E-3,,-1.9900003E-3,0.0,
Pt Fmt,Y,,-1.9800002E-3,0.0,
Yzero,40.00000000E-3,,-1.9700001E-3,79.999998212E-3,
Probe Atten,1.000000,,-1.9600003E-3,0.0,
,,,-1.9500002E-3,0.0,
Note,TBS 1102B-EDU - 14:50:44   7/03/2024,,-1.9400001E-3,0.0,
,,,-1.9300001E-3,0.0,
,,,-1.9200002E-3,0.0,
,,,-1.9100001E-3,0.0,
,,,-1.9000001E-3,0.0,
,,,-1.8900002E-3,0.0,
,,,-1.8800001E-3,0.0,
,,,-1.8700002E-3,0.0,
,,,-1.8600002E-3,0.0,
,,,-1.8500001E-3,0.0,
,,,-1.8400002E-3,0.0,
,,,-1.8300002E-3,0.0,
,,,-1.8200001E-3,0.0,
,,,-1.8100002E-3,0.0,
,,,-1.8000002E-3,0.0,
,,,-1.7900001E-3,0.0,
,,,-1.7800002E-3,0.0,
,,,-1.7700002E-3,0.0,
,,,-1.7600001E-3,0.0,
,,,-1.7500002E-3,0.0,
,,,-1.7400002E-3,0.0,
,,,-1.7300001E-3,0.0,
,,,-1.7200002E-3,0.0,
,,,-1.7100002E-3,0.0,
,,,-1.7000001E-3,0.0,
,,,-1.6900002E-3,0.0,
,,,-1.6800002E-3,0.0,
,,,-1.6700001E-3,0.0,
,,,-1.6600002E-3,0.0,
,,,-1.6500002E-3,0.0,
,,,-1.6400001E-3,0.0,
,,,-1.6300002E-3,0.0,
,,,-1.6200002E-3,-79.999998212E-3,
,,,-1.6100002E-3,0.0,
,,,-1.6000002E-3,0.0,
,,,-1.5900001E-3,0.0,
,,,-1.5800002E-3,0.0,
,,,-1.5700002E-3,0.0,
,,,-1.5600001E-3,0.0,
,,,-1.5500002E-3,0.0,
,,,-1.5400002E-3,0.0,
,,,-1.5300001E-3,0.0,
,,,-1.5200002E-3,0.0,
,,,-1.5100002E-3,0.0,
,,,-1.5000001E-3,0.0,
,,,-1.4900002E-3,0.0,
,,,-1.4800002E-3,0.0,
,,,-1.4700001E-3,0.0,
,,,-1.4600002E-3,0.0,
,,,-1.4500002E-3,0.0,
,,,-1.4400001E-3,0.0,
,,,-1.4300002E-3,0.0,
,,,-1.4200002E-3,0.0,
,,,-1.4100001E-3,0.0,
,,,-1.4000002E-3,0.0,
,,,-1.3900002E-3,0.0,
,,,-1.3800001E-3,0.0,
,,,-1.3700002E-3,0.0,
,,,-1.3600002E-3,0.0,
,,,-1.3500002E-3,0.0,
,,,-1.3400002E-3,0.0,
,,,-1.3300002E-3,0.0,
,,,-1.3200002E-3,0.0,
,,,-1.3100002E-3,0.0,
,,,-1.3000001E-3,0.0,
,,,-1.2900002E-3,0.0,
,,,-1.2800002E-3,0.0,
,,,-1.2700001E-3,0.0,
,,,-1.2600002E-3,0.0,
,,,-1.2500002E-3,0.0,
,,,-1.2400001E-3,0.0,
,,,-1.2300002E-3,0.0,
,,,-1.2200002E-3,0.0,
,,,-1.2100001E-3,0.0,
,,,-1.2000002E-3,0.0,
,,,-1.1900002E-3,0.0,
,,,-1.1800001E-3,0.0,
,,,-1.1700002E-3,0.0,
,,,-1.1600002E-3,0.0,
,,,-1.1500001E-3,0.0,
,,,-1.1400002E-3,0.0,
,,,-1.1300002E-3,0.0,
,,,-1.1200001E-3,0.0,
,,,-1.1100002E-3,0.0,
,,,-1.1000002E-3,0.0,
,,,-1.0900002E-3,0.0,
,,,-1.0800002E-3,0.0,
,,,-1.0700002E-3,0.0,
,,,-1.0600002E-3,0.0,
,,,-1.0500002E-3,0.0,
,,,-1.0400002E-3,0.0,
,,,-1.0300002E-3,0.0,
,,,-1.0200002E-3,0.0,
,,,-1.0100002E-3,0.0,
,,,-1.0000002E-3,0.0,
,,,-990.000204183E-6,79.999998212E-3,
,,,-980.000244454E-6,159.99999642E-3,
,,,-970.000168309E-6,159.99999642E-3,
,,,-960.000208579E-6,239.99999464E-3,
,,,-950.000190642E-6,319.99999285E-3,
,,,-940.000172704E-6,399.99997616E-3,
,,,-930.000212975E-6,479.999989271E-3,
,,,-920.000195038E-6,479.999989271E-3,
,,,-910.000177100E-6,639.999985695E-3,
,,,-900.000217371E-6,639.999985695E-3,
,,,-890.000199433E-6,639.999985695E-3,
,,,-880.000181496E-6,719.999969006E-3,
,,,-870.000163559E-6,719.999969006E-3,
,,,-860.000203829E-6,799.999952316E-3,
,,,-850.000185892E-6,799.999952316E-3,
,,,-840.000167955E-6,879.999995232E-3,
,,,-830.000208225E-6,959.999978542E-3,
,,,-820.000190288E-6,959.999978542E-3,
,,,-810.000172351E-6,1.0400000,
,,,-800.000212621E-6,1.0400000,
,,,-790.000194684E-6,1.1200000,
,,,-780.000176746E-6,1.1200000,
,,,-770.000217017E-6,1.1999999,
,,,-760.000199080E-6,1.1999999,
,,,-750.000181142E-6,1.2800000,
,,,-740.000163205E-6,1.3600000,
,,,-730.000203475E-6,1.4399999,
,,,-720.000185538E-6,1.4399999,
,,,-710.000167601E-6,1.4399999,
,,,-700.000207871E-6,1.4399999,
,,,-690.000189934E-6,1.5200000,
,,,-680.000171997E-6,1.5200000,
,,,-670.000212267E-6,1.5999999,
,,,-660.000194330E-6,1.5999999,
,,,-650.000176392E-6,1.5999999,
,,,-640.000216663E-6,1.6799999,
,,,-630.000198726E-6,1.7600000,
,,,-620.000180788E-6,1.8399999,
,,,-610.000221059E-6,1.7600000,
,,,-600.000203121E-6,1.8399999,
,,,-590.000185184E-6,1.8399999,
,,,-580.000225455E-6,1.9200000,
,,,-570.000207517E-6,1.9200000,
,,,-560.000189580E-6,2.0000000,
,,,-550.000171643E-6,2.0000000,
,,,-540.000211913E-6,2.0000000,
,,,-530.000193976E-6,2.0799999,
,,,-520.000176039E-6,2.0799999,
,,,-510.000216309E-6,2.0799999,
,,,-500.000198372E-6,2.1599998,
,,,-490.000180434E-6,2.1599998,
,,,-480.000191601E-6,2.1599998,
,,,-470.000202768E-6,2.2400000,
,,,-460.000184830E-6,2.2400000,
,,,-450.000195997E-6,2.3199999,
,,,-440.000207163E-6,2.3199999,
,,,-430.000189226E-6,2.3999999,
,,,-420.000200393E-6,2.3999999,
,,,-410.000211559E-6,2.3999999,
,,,-400.00019362E-6,2.4800000,
,,,-390.00020479E-6,2.4800000,
,,,-380.00021596E-6,2.4800000,
,,,-370.00019802E-6,2.5599999,
,,,-360.00020918E-6,2.5599999,
,,,-350.00019125E-6,2.6399999,
,,,-340.00020241E-6,2.5599999,
,,,-330.00021358E-6,2.6399999,
,,,-320.00019564E-6,2.6399999,
,,,-310.00020681E-6,2.72000003,
,,,-300.00018887E-6,2.72000003,
,,,-290.00020004E-6,2.79999995,
,,,-280.00021121E-6,2.79999995,
,,,-270.00019327E-6,2.79999995,
,,,-260.00020443E-6,2.79999995,
,,,-250.00021560E-6,2.79999995,
,,,-240.00019766E-6,2.87999988,
,,,-230.00020883E-6,2.87999988,
,,,-220.00020545E-6,2.87999988,
,,,-210.00020206E-6,2.87999988,
,,,-200.00021323E-6,2.96000004,
,,,-190.00020984E-6,2.96000004,
,,,-180.00020646E-6,3.03999996,
,,,-170.00020307E-6,2.96000004,
,,,-160.00019968E-6,2.96000004,
,,,-150.00021085E-6,3.03999996,
,,,-140.0002075E-6,3.11999989,
,,,-130.0002041E-6,3.11999989,
,,,-120.0002080E-6,3.11999989,
,,,-110.0002119E-6,3.19999981,
,,,-100.0002085E-6,3.19999981,
,,,-90.000205091E-6,3.19999981,
,,,-80.000208982E-6,3.19999981,
,,,-70.000212872E-6,3.19999981,
,,,-60.000209487E-6,3.27999997,
,,,-50.00020974E-6,3.27999997,
,,,-40.00020999E-6,3.27999997,
,,,-30.00021024E-6,3.27999997,
,,,-20.0002105E-6,3.35999990,
,,,-10.0002108E-6,3.35999990,
,,,-211.00276995E-12,3.35999990,
,,,9.999788745E-6,3.35999990,
,,,19.9997885E-6,3.43999982,
,,,29.99978824E-6,3.43999982,
,,,39.99978799E-6,3.35999990,
,,,49.99978773E-6,3.43999982,
,,,59.999787482E-6,3.51999998,
,,,69.999790867E-6,3.51999998,
,,,79.999786976E-6,3.51999998,
,,,89.999783086E-6,3.51999998,
,,,99.999786471E-6,3.51999998,
,,,109.9997899E-6,3.51999998,
,,,119.9997860E-6,3.51999998,
,,,129.9997821E-6,3.51999998,
,,,139.9997855E-6,3.51999998,
,,,149.99978885E-6,3.51999998,
,,,159.99979223E-6,3.59999990,
,,,169.99978106E-6,3.59999990,
,,,179.99978445E-6,3.59999990,
,,,189.99978784E-6,3.59999990,
,,,199.99977667E-6,3.67999983,
,,,209.99978005E-6,3.67999983,
,,,219.99978344E-6,3.67999983,
,,,229.99978682E-6,3.67999983,
,,,239.99979021E-6,3.75999999,
,,,249.99977904E-6,3.75999999,
,,,259.99976788E-6,3.75999999,
,,,269.99978581E-6,3.75999999,
,,,279.99977465E-6,3.75999999,
,,,289.99979259E-6,3.75999999,
,,,299.99978142E-6,3.83999991,
,,,309.99977025E-6,3.83999991,
,,,319.99978819E-6,3.83999991,
,,,329.99977702E-6,3.83999991,
,,,339.99979496E-6,3.83999991,
,,,349.99978379E-6,3.91999984,
,,,359.99977263E-6,3.83999991,
,,,369.99979056E-6,3.91999984,
,,,379.99977940E-6,4.00000000,
,,,389.99976823E-6,3.91999984,
,,,399.99978617E-6,3.91999984,
,,,409.999775002E-6,4.00000000,
,,,419.999763835E-6,3.91999984,
,,,429.999781772E-6,4.00000000,
,,,439.999770606E-6,4.00000000,
,,,449.999788543E-6,4.07999992,
,,,459.999777377E-6,4.00000000,
,,,469.999766210E-6,4.00000000,
,,,479.999784147E-6,4.07999992,
,,,489.999772981E-6,4.07999992,
,,,499.999790918E-6,4.00000000,
,,,509.999750648E-6,4.07999992,
,,,519.999768585E-6,4.07999992,
,,,529.999786522E-6,4.07999992,
,,,539.999804460E-6,4.07999992,
,,,549.999764189E-6,4.15999985,
,,,559.999782126E-6,4.15999985,
,,,569.999800064E-6,4.15999985,
,,,579.999759793E-6,4.15999985,
,,,589.999777731E-6,4.15999985,
,,,599.999795668E-6,4.15999985,
,,,609.999755397E-6,4.15999985,
,,,619.999773335E-6,4.15999985,
,,,629.999791272E-6,4.15999985,
,,,639.999751002E-6,4.15999985,
,,,649.999768939E-6,4.15999985,
,,,659.999786876E-6,4.15999985,
,,,669.999746606E-6,4.15999985,
,,,679.999764543E-6,4.23999977,
,,,689.999782480E-6,4.23999977,
,,,699.999742210E-6,4.23999977,
,,,709.999760147E-6,4.23999977,
,,,719.999778084E-6,4.23999977,
,,,729.999796022E-6,4.23999977,
,,,739.999755751E-6,4.23999977,
,,,749.999773689E-6,4.31999969,
,,,759.999791626E-6,4.23999977,
,,,769.999751355E-6,4.31999969,
,,,779.999769293E-6,4.31999969,
,,,789.999787230E-6,4.31999969,
,,,799.999746960E-6,4.40000010,
,,,809.999764897E-6,4.31999969,
,,,819.999782834E-6,4.31999969,
,,,829.999742564E-6,4.40000010,
,,,839.999760501E-6,4.31999969,
,,,849.999778438E-6,4.40000010,
,,,859.999796376E-6,4.40000010,
,,,869.999756105E-6,4.40000010,
,,,879.999774043E-6,4.40000010,
,,,889.999791980E-6,4.40000010,
,,,899.999751709E-6,4.40000010,
,,,909.999769647E-6,4.40000010,
,,,919.999787584E-6,4.40000010,
,,,929.999747314E-6,4.40000010,
,,,939.999765251E-6,4.40000010,
,,,949.999783188E-6,4.40000010,
,,,959.999742918E-6,4.40000010,
,,,969.999760855E-6,4.40000010,
,,,979.999778792E-6,4.48000002,
,,,989.999738522E-6,4.40000010,
,,,999.999814667E-6,4.48000002,
,,,1.0099998E-3,4.48000002,
,,,1.0199997E-3,4.48000002,
,,,1.0299998E-3,4.48000002,
,,,1.0399998E-3,4.55999994,
,,,1.0499997E-3,4.48000002,
,,,1.0599998E-3,4.40000010,
,,,1.0699998E-3,4.48000002,
,,,1.0799997E-3,4.48000002,
,,,1.0899998E-3,4.48000002,
,,,1.0999998E-3,4.55999994,
,,,1.1099997E-3,4.55999994,
,,,1.1199998E-3,4.55999994,
,,,1.1299998E-3,4.48000002,
,,,1.1399997E-3,4.55999994,
,,,1.1499998E-3,4.55999994,
,,,1.1599998E-3,4.55999994,
,,,1.1699997E-3,4.55999994,
,,,1.1799998E-3,4.55999994,
,,,1.1899997E-3,4.55999994,
,,,1.1999997E-3,4.55999994,
,,,1.2099998E-3,4.55999994,
,,,1.2199997E-3,4.55999994,
,,,1.2299997E-3,4.55999994,
,,,1.2399998E-3,4.55999994,
,,,1.2499997E-3,4.55999994,
,,,1.2599998E-3,4.55999994,
,,,1.2699998E-3,4.55999994,
,,,1.2799997E-3,4.55999994,
,,,1.2899998E-3,4.55999994,
,,,1.2999998E-3,4.55999994,
,,,1.3099997E-3,4.63999987,
,,,1.3199998E-3,4.63999987,
,,,1.3299998E-3,4.63999987,
,,,1.3399997E-3,4.55999994,
,,,1.3499998E-3,4.55999994,
,,,1.3599998E-3,4.55999994,
,,,1.3699997E-3,4.55999994,
,,,1.3799998E-3,4.63999987,
,,,1.3899998E-3,4.55999994,
,,,1.3999997E-3,4.63999987,
,,,1.4099998E-3,4.63999987,
,,,1.4199998E-3,4.71999979,
,,,1.4299997E-3,4.63999987,
,,,1.4399998E-3,4.63999987,
,,,1.4499997E-3,4.63999987,
,,,1.4599997E-3,4.63999987,
,,,1.4699998E-3,4.63999987,
,,,1.4799997E-3,4.63999987,
,,,1.4899997E-3,4.63999987,
,,,1.4999998E-3,4.71999979,
,,,1.5099997E-3,4.71999979,
,,,1.5199997E-3,4.71999979,
,,,1.5299998E-3,4.71999979,
,,,1.5399997E-3,4.63999987,
,,,1.5499997E-3,4.71999979,
,,,1.5599998E-3,4.71999979,
,,,1.5699997E-3,4.63999987,
,,,1.5799997E-3,4.71999979,
,,,1.5899998E-3,4.71999979,
,,,1.5999997E-3,4.71999979,
,,,1.6099998E-3,4.63999987,
,,,1.6199998E-3,4.71999979,
,,,1.6299997E-3,4.71999979,
,,,1.6399998E-3,4.71999979,
,,,1.6499998E-3,4.71999979,
,,,1.6599997E-3,4.71999979,
,,,1.6699998E-3,4.79999971,
,,,1.6799998E-3,4.71999979,
,,,1.6899997E-3,4.71999979,
,,,1.6999998E-3,4.71999979,
,,,1.7099997E-3,4.71999979,
,,,1.7199997E-3,4.71999979,
,,,1.7299998E-3,4.71999979,
,,,1.7399997E-3,4.71999979,
,,,1.7499997E-3,4.71999979,
,,,1.7599998E-3,4.71999979,
,,,1.7699997E-3,4.71999979,
,,,1.7799997E-3,4.79999971,
,,,1.7899998E-3,4.71999979,
,,,1.7999997E-3,4.71999979,
,,,1.8099997E-3,4.71999979,
,,,1.8199998E-3,4.71999979,
,,,1.8299997E-3,4.71999979,
,,,1.8399997E-3,4.79999971,
,,,1.8499998E-3,4.71999979,
,,,1.8599997E-3,4.71999979,
,,,1.8699997E-3,4.79999971,
,,,1.8799998E-3,4.79999971,
,,,1.8899997E-3,4.71999979,
,,,1.8999998E-3,4.71999979,
,,,1.9099998E-3,4.79999971,
,,,1.9199997E-3,4.71999979,
,,,1.9299998E-3,4.79999971,
,,,1.9399998E-3,4.79999971,
,,,1.9499997E-3,4.79999971,
,,,1.9599998E-3,4.71999979,
,,,1.9699996E-3,4.79999971,
,,,1.9799997E-3,4.79999971,
,,,1.9899998E-3,4.71999979,
,,,1.9999996E-3,4.79999971,
,,,2.0099997E-3,4.79999971,
,,,2.0199998E-3,4.79999971,
,,,2.0299996E-3,4.79999971,
,,,2.0399997E-3,4.71999979,
,,,2.0499998E-3,4.79999971,
,,,2.0599999E-3,4.79999971,
,,,2.0699997E-3,4.79999971,
,,,2.0799998E-3,4.79999971,
,,,2.0899998E-3,4.79999971,
,,,2.0999997E-3,4.79999971,
,,,2.1099998E-3,4.79999971,
,,,2.1199998E-3,4.79999971,
,,,2.1299997E-3,4.88000011,
,,,2.1399998E-3,4.79999971,
,,,2.1499998E-3,4.79999971,
,,,2.1599997E-3,4.79999971,
,,,2.1699998E-3,4.79999971,
,,,2.1799998E-3,4.79999971,
,,,2.1899997E-3,4.79999971,
,,,2.1999998E-3,4.79999971,
,,,2.2099998E-3,4.79999971,
,,,2.2199997E-3,4.88000011,
,,,2.2299998E-3,4.79999971,
,,,2.2399998E-3,4.79999971,
,,,2.2499997E-3,4.79999971,
,,,2.2599997E-3,4.79999971,
,,,2.2699998E-3,4.79999971,
,,,2.2799997E-3,4.79999971,
,,,2.2899997E-3,4.88000011,
,,,2.2999998E-3,4.79999971,
,,,2.3099997E-3,4.79999971,
,,,2.3199997E-3,4.79999971,
,,,2.3299998E-3,4.79999971,
,,,2.3399997E-3,4.88000011,
,,,2.3499997E-3,4.88000011,
,,,2.3599998E-3,4.79999971,
,,,2.3699997E-3,4.88000011,
,,,2.3799997E-3,4.79999971,
,,,2.3899998E-3,4.79999971,
,,,2.3999996E-3,4.88000011,
,,,2.4099997E-3,4.88000011,
,,,2.4199998E-3,4.88000011,
,,,2.4299996E-3,4.79999971,
,,,2.4399997E-3,4.88000011,
,,,2.4499998E-3,4.88000011,
,,,2.4599996E-3,4.79999971,
,,,2.4699997E-3,4.88000011,
,,,2.4799998E-3,4.88000011,
,,,2.4899996E-3,4.79999971,
,,,2.4999997E-3,4.79999971,
,,,2.5099998E-3,4.79999971,
,,,2.5199996E-3,4.79999971,
,,,2.5299997E-3,4.88000011,
,,,2.5399998E-3,4.88000011,
,,,2.5499996E-3,4.88000011,
,,,2.5599997E-3,4.79999971,
,,,2.5699998E-3,4.88000011,
,,,2.5799996E-3,4.88000011,
,,,2.5899997E-3,4.79999971,
,,,2.5999998E-3,4.88000011,
,,,2.6099996E-3,4.88000011,
,,,2.6199997E-3,4.88000011,
,,,2.6299998E-3,4.88000011,
,,,2.6399996E-3,4.88000011,
,,,2.6499997E-3,4.79999971,
,,,2.6599998E-3,4.88000011,
,,,2.6699996E-3,4.79999971,
,,,2.6799997E-3,4.88000011,
,,,2.6899998E-3,4.88000011,
,,,2.6999996E-3,4.88000011,
,,,2.7099997E-3,4.88000011,
,,,2.71999976E-3,4.88000011,
,,,2.72999983E-3,4.88000011,
,,,2.73999968E-3,4.79999971,
,,,2.74999975E-3,4.88000011,
,,,2.75999983E-3,4.79999971,
,,,2.76999967E-3,4.88000011,
,,,2.77999975E-3,4.88000011,
,,,2.78999982E-3,4.88000011,
,,,2.79999967E-3,4.88000011,
,,,2.80999974E-3,4.88000011,
,,,2.81999982E-3,4.88000011,
,,,2.82999966E-3,4.88000011,
,,,2.83999974E-3,4.88000011,
,,,2.84999982E-3,4.88000011,
,,,2.85999966E-3,4.88000011,
,,,2.86999973E-3,4.88000011,
,,,2.87999981E-3,4.88000011,
,,,2.88999965E-3,4.88000011,
,,,2.89999973E-3,4.79999971,
,,,2.90999981E-3,4.88000011,
,,,2.91999965E-3,4.79999971,
,,,2.92999973E-3,4.88000011,
,,,2.93999980E-3,4.96000004,
,,,2.94999965E-3,4.88000011,
,,,2.95999972E-3,4.88000011,
,,,2.96999980E-3,4.79999971,
,,,2.97999964E-3,4.88000011,
,,,2.98999972E-3,4.88000011,
,,,2.99999979E-3,4.88000011,
,,,3.00999964E-3,4.88000011,
,,,3.01999971E-3,4.96000004,
,,,3.02999979E-3,4.88000011,
,,,3.03999963E-3,4.88000011,
,,,3.04999971E-3,4.88000011,
,,,3.05999978E-3,4.96000004,
,,,3.06999963E-3,4.88000011,
,,,3.07999970E-3,4.88000011,
,,,3.08999978E-3,4.88000011,
,,,3.09999962E-3,4.88000011,
,,,3.10999970E-3,4.88000011,
,,,3.11999978E-3,4.96000004,
,,,3.12999962E-3,4.88000011,
,,,3.13999970E-3,4.96000004,
,,,3.14999977E-3,4.88000011,
,,,3.15999961E-3,4.88000011,
,,,3.16999969E-3,4.88000011,
,,,3.17999977E-3,4.88000011,
,,,3.18999961E-3,4.88000011,
,,,3.19999969E-3,4.88000011,
,,,3.20999976E-3,4.88000011,
,,,3.21999961E-3,4.88000011,
,,,3.22999968E-3,4.88000011,
,,,3.23999976E-3,4.88000011,
,,,3.24999960E-3,4.96000004,
,,,3.25999968E-3,4.96000004,
,,,3.26999975E-3,4.88000011,
,,,3.27999960E-3,4.88000011,
,,,3.28999967E-3,4.88000011,
,,,3.29999975E-3,4.96000004,
,,,3.30999959E-3,4.88000011,
,,,3.31999967E-3,4.88000011,
,,,3.32999974E-3,4.88000011,
,,,3.33999982E-3,4.88000011,
,,,3.34999966E-3,4.96000004,
,,,3.35999974E-3,4.88000011,
,,,3.36999982E-3,4.88000011,
,,,3.37999966E-3,4.88000011,
,,,3.38999974E-3,4.88000011,
,,,3.39999981E-3,4.96000004,
,,,3.40999966E-3,4.88000011,
,,,3.41999973E-3,4.88000011,
,,,3.42999981E-3,4.88000011,
,,,3.43999965E-3,4.96000004,
,,,3.44999973E-3,4.96000004,
,,,3.45999980E-3,4.88000011,
,,,3.46999965E-3,4.88000011,
,,,3.47999972E-3,4.88000011,
,,,3.48999980E-3,4.88000011,
,,,3.49999964E-3,4.88000011,
,,,3.50999972E-3,4.88000011,
,,,3.51999979E-3,4.96000004,
,,,3.52999964E-3,4.88000011,
,,,3.53999971E-3,4.88000011,
,,,3.54999979E-3,4.88000011,
,,,3.55999963E-3,4.88000011,
,,,3.56999971E-3,4.88000011,
,,,3.57999979E-3,4.96000004,
,,,3.58999963E-3,4.88000011,
,,,3.59999971E-3,4.88000011,
,,,3.60999978E-3,4.88000011,
,,,3.61999962E-3,4.88000011,
,,,3.62999970E-3,4.88000011,
,,,3.63999978E-3,4.96000004,
,,,3.64999962E-3,4.88000011,
,,,3.65999970E-3,4.88000011,
,,,3.66999977E-3,4.88000011,
,,,3.67999962E-3,4.88000011,
,,,3.68999969E-3,4.88000011,
,,,3.69999977E-3,4.88000011,
,,,3.70999961E-3,4.88000011,
,,,3.71999969E-3,4.88000011,
,,,3.72999976E-3,4.96000004,
,,,3.73999961E-3,4.88000011,
,,,3.74999968E-3,4.88000011,
,,,3.75999976E-3,4.88000011,
,,,3.76999960E-3,4.88000011,
,,,3.77999968E-3,4.88000011,
,,,3.78999976E-3,4.96000004,
,,,3.79999960E-3,4.96000004,
,,,3.80999967E-3,4.96000004,
,,,3.81999975E-3,4.96000004,
,,,3.82999959E-3,4.96000004,
,,,3.83999967E-3,4.88000011,
,,,3.84999975E-3,4.96000004,
,,,3.85999959E-3,4.88000011,
,,,3.86999967E-3,4.96000004,
,,,3.87999974E-3,4.96000004,
,,,3.88999959E-3,4.88000011,
,,,3.89999966E-3,4.88000011,
,,,3.90999950E-3,4.96000004,
,,,3.91999958E-3,4.88000011,
,,,3.92999966E-3,4.96000004,
,,,3.93999973E-3,4.96000004,
,,,3.94999981E-3,4.88000011,
,,,3.95999989E-3,4.88000011,
,,,3.96999950E-3,4.88000011,
,,,3.97999957E-3,4.88000011,
,,,3.98999965E-3,4.96000004,
,,,3.99999972E-3,4.88000011,
,,,4.00999980E-3,4.88000011,
,,,4.01999988E-3,4.96000004,
,,,4.02999949E-3,4.88000011,
,,,4.03999956E-3,4.96000004,
,,,4.04999964E-3,4.88000011,
,,,4.05999972E-3,4.96000004,
,,,4.06999979E-3,4.96000004,
,,,4.07999987E-3,4.96000004,
,,,4.08999948E-3,4.96000004,
,,,4.09999955E-3,4.96000004,
,,,4.10999963E-3,4.88000011,
,,,4.11999971E-3,4.88000011,
,,,4.12999978E-3,4.88000011,
,,,4.13999986E-3,4.96000004,
,,,4.14999947E-3,4.96000004,
,,,4.15999955E-3,4.96000004,
,,,4.16999962E-3,4.88000011,
,,,4.17999970E-3,4.88000011,
,,,4.18999977E-3,4.88000011,
,,,4.19999985E-3,4.96000004,
,,,4.20999946E-3,4.88000011,
,,,4.21999954E-3,4.96000004,
,,,4.22999961E-3,4.88000011,
,,,4.23999969E-3,4.96000004,
,,,4.24999977E-3,4.96000004,
,,,4.25999984E-3,4.88000011,
,,,4.26999945E-3,4.96000004,
,,,4.27999953E-3,4.96000004,
,,,4.28999960E-3,4.96000004,
,,,4.29999968E-3,4.96000004,
,,,4.30999976E-3,4.96000004,
,,,4.31999983E-3,4.88000011,
,,,4.32999991E-3,4.96000004,
,,,4.33999952E-3,4.96000004,
,,,4.34999960E-3,4.96000004,
,,,4.35999967E-3,4.96000004,
,,,4.36999975E-3,4.96000004,
,,,4.37999982E-3,4.88000011,
,,,4.38999990E-3,4.96000004,
,,,4.39999951E-3,4.96000004,
,,,4.40999959E-3,4.96000004,
,,,4.41999966E-3,4.96000004,
,,,4.42999974E-3,4.96000004,
,,,4.43999982E-3,4.96000004,
,,,4.44999989E-3,4.88000011,
,,,4.45999950E-3,4.96000004,
,,,4.46999958E-3,4.88000011,
,,,4.47999965E-3,4.88000011,
,,,4.48999973E-3,4.96000004,
,,,4.49999981E-3,4.96000004,
,,,4.50999988E-3,4.88000011,
,,,4.51999949E-3,4.88000011,
,,,4.52999957E-3,4.96000004,
,,,4.53999965E-3,4.96000004,
,,,4.54999972E-3,4.88000011,
,,,4.55999980E-3,4.88000011,
,,,4.56999987E-3,4.96000004,
,,,4.57999948E-3,4.96000004,
,,,4.58999956E-3,4.88000011,
,,,4.59999964E-3,4.96000004,
,,,4.60999971E-3,4.88000011,
,,,4.61999979E-3,4.88000011,
,,,4.62999986E-3,4.96000004,
,,,4.63999948E-3,4.88000011,
,,,4.64999955E-3,4.96000004,
,,,4.65999963E-3,4.96000004,
,,,4.66999970E-3,4.88000011,
,,,4.67999978E-3,4.88000011,
,,,4.68999986E-3,4.96000004,
,,,4.69999947E-3,4.88000011,
,,,4.70999954E-3,4.88000011,
,,,4.71999962E-3,4.96000004,
,,,4.72999969E-3,4.96000004,
,,,4.73999977E-3,4.96000004,
,,,4.74999985E-3,4.96000004,
,,,4.75999946E-3,4.96000004,
,,,4.76999953E-3,4.96000004,
,,,4.77999961E-3,4.96000004,
