Electronics_for_Sciences/04 Informe Filtros/Datos/1 khz RL.csv

Record Length,2500,Points,-2.5000002E-3,-319.99999285E-3,,Record Length,2500,Points,-2.5000002E-3,-152.00001001E-3,
Sample Interval,2.0000000E-6,s,-2.4980002E-3,-479.999989271E-3,,Sample Interval,2.0000000E-6,s,-2.4980002E-3,-152.00001001E-3,
Trigger Point,1.2500002E3,Samples,-2.4960001E-3,-479.999989271E-3,,Trigger Point,1.2500002E3,Samples,-2.4960001E-3,-176.00001395E-3,
,,,-2.4940001E-3,-479.999989271E-3,,,,,-2.4940001E-3,-176.00001395E-3,
,,,-2.4920001E-3,-560.000002384E-3,,,,,-2.4920001E-3,-200.00000298E-3,
,,,-2.4900001E-3,-479.999989271E-3,,,,,-2.4900001E-3,-200.00000298E-3,
Source,CH1,,-2.4880001E-3,-560.000002384E-3,,Source,CH2,,-2.4880001E-3,-200.00000298E-3,
Vertical Units,Volts,,-2.4860001E-3,-560.000002384E-3,,Vertical Units,Volts,,-2.4860001E-3,-200.00000298E-3,
Vertical Scale,2.0000000,,-2.4840003E-3,-639.999985695E-3,,Vertical Scale,200.00000950E-3,,-2.4840003E-3,-216.00000560E-3,
Vertical Offset,0,,-2.4820003E-3,-639.999985695E-3,,Vertical Offset,0,,-2.4820003E-3,-224.00000691E-3,
Horizontal Units,s,,-2.4800003E-3,-719.999969006E-3,,Horizontal Units,s,,-2.4800003E-3,-208.00000429E-3,
Horizontal Scale,499.999998738E-6,,-2.4780002E-3,-639.999985695E-3,,Horizontal Scale,499.999998738E-6,,-2.4780002E-3,-224.00000691E-3,
Pt Fmt,Y,,-2.4760002E-3,-719.999969006E-3,,Pt Fmt,Y,,-2.4760002E-3,-184.00001526E-3,
Yzero,2.0000000,,-2.4740002E-3,-719.999969006E-3,,Yzero,-2.0000000,,-2.4740002E-3,-192.00000167E-3,
Probe Atten,1.000000,,-2.4720002E-3,-719.999969006E-3,,Probe Atten,10.0000000,,-2.4720002E-3,-208.00000429E-3,
,,,-2.4700002E-3,-799.999952316E-3,,,,,-2.4700002E-3,-192.00000167E-3,
Note,TBS 1102B-EDU - 15:55:18   14/03/2024,,-2.4680002E-3,-799.999952316E-3,,Note,TBS 1102B-EDU - 15:55:18   14/03/2024,,-2.4680002E-3,-192.00000167E-3,
,,,-2.4660002E-3,-799.999952316E-3,,,,,-2.4660002E-3,-216.00000560E-3,
,,,-2.4640001E-3,-879.999995232E-3,,,,,-2.4640001E-3,-216.00000560E-3,
,,,-2.4620001E-3,-879.999995232E-3,,,,,-2.4620001E-3,-216.00000560E-3,
,,,-2.4600001E-3,-959.999978542E-3,,,,,-2.4600001E-3,-240.00000954E-3,
,,,-2.4580001E-3,-959.999978542E-3,,,,,-2.4580001E-3,-248.00001085E-3,
,,,-2.4560001E-3,-1.0400000,,,,,-2.4560001E-3,-224.00000691E-3,
,,,-2.4540003E-3,-959.999978542E-3,,,,,-2.4540003E-3,-232.00000823E-3,
,,,-2.4520003E-3,-1.0400000,,,,,-2.4520003E-3,-248.00001085E-3,
,,,-2.4500003E-3,-1.0400000,,,,,-2.4500003E-3,-232.00000823E-3,
,,,-2.4480002E-3,-1.1200000,,,,,-2.4480002E-3,-232.00000823E-3,
,,,-2.4460002E-3,-1.1200000,,,,,-2.4460002E-3,-240.00000954E-3,
,,,-2.4440002E-3,-1.1999999,,,,,-2.4440002E-3,-224.00000691E-3,
,,,-2.4420002E-3,-1.1999999,,,,,-2.4420002E-3,-216.00000560E-3,
,,,-2.4400002E-3,-1.1999999,,,,,-2.4400002E-3,-248.00001085E-3,
,,,-2.4380002E-3,-1.2800000,,,,,-2.4380002E-3,-248.00001085E-3,
,,,-2.4360002E-3,-1.2800000,,,,,-2.4360002E-3,-263.99999857E-3,
,,,-2.4340001E-3,-1.2800000,,,,,-2.4340001E-3,-256.00001216E-3,
,,,-2.4320001E-3,-1.2800000,,,,,-2.4320001E-3,-256.00001216E-3,
,,,-2.4300001E-3,-1.3600000,,,,,-2.4300001E-3,-263.99999857E-3,
,,,-2.4280001E-3,-1.4399999,,,,,-2.4280001E-3,-256.00001216E-3,
,,,-2.4260001E-3,-1.4399999,,,,,-2.4260001E-3,-256.00001216E-3,
,,,-2.4240001E-3,-1.4399999,,,,,-2.4240001E-3,-256.00001216E-3,
,,,-2.4220003E-3,-1.4399999,,,,,-2.4220003E-3,-263.99999857E-3,
,,,-2.4200003E-3,-1.4399999,,,,,-2.4200003E-3,-248.00001085E-3,
,,,-2.4180003E-3,-1.4399999,,,,,-2.4180003E-3,-256.00001216E-3,
,,,-2.4160002E-3,-1.5200000,,,,,-2.4160002E-3,-263.99999857E-3,
,,,-2.4140002E-3,-1.5200000,,,,,-2.4140002E-3,-263.99999857E-3,
,,,-2.4120002E-3,-1.5200000,,,,,-2.4120002E-3,-272.00001478E-3,
,,,-2.4100002E-3,-1.5999999,,,,,-2.4100002E-3,-256.00001216E-3,
,,,-2.4080002E-3,-1.5999999,,,,,-2.4080002E-3,-248.00001085E-3,
,,,-2.4060002E-3,-1.6799999,,,,,-2.4060002E-3,-263.99999857E-3,
,,,-2.4040001E-3,-1.6799999,,,,,-2.4040001E-3,-263.99999857E-3,
,,,-2.4020001E-3,-1.6799999,,,,,-2.4020001E-3,-263.99999857E-3,
,,,-2.4000001E-3,-1.7600000,,,,,-2.4000001E-3,-312.00000644E-3,
,,,-2.3980001E-3,-1.7600000,,,,,-2.3980001E-3,-304.00002003E-3,
,,,-2.3960001E-3,-1.7600000,,,,,-2.3960001E-3,-296.00000381E-3,
,,,-2.3940001E-3,-1.7600000,,,,,-2.3940001E-3,-304.00002003E-3,
,,,-2.3920003E-3,-1.8399999,,,,,-2.3920003E-3,-296.00000381E-3,
,,,-2.3900003E-3,-1.8399999,,,,,-2.3900003E-3,-263.99999857E-3,
,,,-2.3880003E-3,-1.8399999,,,,,-2.3880003E-3,-280.00000119E-3,
,,,-2.3860002E-3,-1.8399999,,,,,-2.3860002E-3,-296.00000381E-3,
,,,-2.3840002E-3,-1.8399999,,,,,-2.3840002E-3,-272.00001478E-3,
,,,-2.3820002E-3,-1.9200000,,,,,-2.3820002E-3,-272.00001478E-3,
,,,-2.3800002E-3,-1.9200000,,,,,-2.3800002E-3,-288.00001740E-3,
,,,-2.3780002E-3,-1.9200000,,,,,-2.3780002E-3,-263.99999857E-3,
,,,-2.3760002E-3,-1.9200000,,,,,-2.3760002E-3,-256.00001216E-3,
,,,-2.3740001E-3,-2.0000000,,,,,-2.3740001E-3,-304.00002003E-3,
,,,-2.3720001E-3,-2.0000000,,,,,-2.3720001E-3,-288.00001740E-3,
,,,-2.3700001E-3,-2.0000000,,,,,-2.3700001E-3,-304.00002003E-3,
,,,-2.3680001E-3,-2.0000000,,,,,-2.3680001E-3,-304.00002003E-3,
,,,-2.3660001E-3,-2.0000000,,,,,-2.3660001E-3,-312.00000644E-3,
,,,-2.3640001E-3,-2.0799999,,,,,-2.3640001E-3,-304.00002003E-3,
,,,-2.3620003E-3,-2.0799999,,,,,-2.3620003E-3,-304.00002003E-3,
,,,-2.3600003E-3,-2.0799999,,,,,-2.3600003E-3,-288.00001740E-3,
,,,-2.3580003E-3,-2.0799999,,,,,-2.3580003E-3,-296.00000381E-3,
,,,-2.3560002E-3,-2.1599998,,,,,-2.3560002E-3,-304.00002003E-3,
,,,-2.3540002E-3,-2.0799999,,,,,-2.3540002E-3,-296.00000381E-3,
,,,-2.3520002E-3,-2.1599998,,,,,-2.3520002E-3,-288.00001740E-3,
,,,-2.3500002E-3,-2.1599998,,,,,-2.3500002E-3,-280.00000119E-3,
,,,-2.3480002E-3,-2.1599998,,,,,-2.3480002E-3,-296.00000381E-3,
,,,-2.3460002E-3,-2.1599998,,,,,-2.3460002E-3,-288.00001740E-3,
,,,-2.3440002E-3,-2.1599998,,,,,-2.3440002E-3,-312.00000644E-3,
,,,-2.3420001E-3,-2.1599998,,,,,-2.3420001E-3,-304.00002003E-3,
,,,-2.3400001E-3,-2.2400000,,,,,-2.3400001E-3,-296.00000381E-3,
,,,-2.3380001E-3,-2.1599998,,,,,-2.3380001E-3,-304.00002003E-3,
,,,-2.3360001E-3,-2.2400000,,,,,-2.3360001E-3,-320.00002265E-3,
,,,-2.3340001E-3,-2.2400000,,,,,-2.3340001E-3,-304.00002003E-3,
,,,-2.3320001E-3,-2.2400000,,,,,-2.3320001E-3,-312.00000644E-3,
,,,-2.3300003E-3,-2.3199999,,,,,-2.3300003E-3,-296.00000381E-3,
,,,-2.3280003E-3,-2.3199999,,,,,-2.3280003E-3,-296.00000381E-3,
,,,-2.3260002E-3,-2.3199999,,,,,-2.3260002E-3,-296.00000381E-3,
,,,-2.3240002E-3,-2.3199999,,,,,-2.3240002E-3,-288.00001740E-3,
,,,-2.3220002E-3,-2.2400000,,,,,-2.3220002E-3,-296.00000381E-3,
,,,-2.3200002E-3,-2.3199999,,,,,-2.3200002E-3,-296.00000381E-3,
,,,-2.3180002E-3,-2.3999999,,,,,-2.3180002E-3,-296.00000381E-3,
,,,-2.3160002E-3,-2.3199999,,,,,-2.3160002E-3,-296.00000381E-3,
,,,-2.3140002E-3,-2.3199999,,,,,-2.3140002E-3,-272.00001478E-3,
,,,-2.3120001E-3,-2.3999999,,,,,-2.3120001E-3,-272.00001478E-3,
,,,-2.3100001E-3,-2.3199999,,,,,-2.3100001E-3,-296.00000381E-3,
,,,-2.3080001E-3,-2.3999999,,,,,-2.3080001E-3,-263.99999857E-3,
,,,-2.3060001E-3,-2.3999999,,,,,-2.3060001E-3,-263.99999857E-3,
,,,-2.3040001E-3,-2.3999999,,,,,-2.3040001E-3,-304.00002003E-3,
,,,-2.3020001E-3,-2.3199999,,,,,-2.3020001E-3,-296.00000381E-3,
,,,-2.3000003E-3,-2.3999999,,,,,-2.3000003E-3,-288.00001740E-3,
,,,-2.2980003E-3,-2.3999999,,,,,-2.2980003E-3,-312.00000644E-3,
,,,-2.2960003E-3,-2.3999999,,,,,-2.2960003E-3,-312.00000644E-3,
,,,-2.2940002E-3,-2.3999999,,,,,-2.2940002E-3,-280.00000119E-3,
,,,-2.2920002E-3,-2.3999999,,,,,-2.2920002E-3,-296.00000381E-3,
,,,-2.2900002E-3,-2.4800000,,,,,-2.2900002E-3,-296.00000381E-3,
,,,-2.2880002E-3,-2.3999999,,,,,-2.2880002E-3,-248.00001085E-3,
,,,-2.2860002E-3,-2.3999999,,,,,-2.2860002E-3,-272.00001478E-3,
,,,-2.2840002E-3,-2.3999999,,,,,-2.2840002E-3,-296.00000381E-3,
,,,-2.2820001E-3,-2.3999999,,,,,-2.2820001E-3,-256.00001216E-3,
,,,-2.2800001E-3,-2.3999999,,,,,-2.2800001E-3,-263.99999857E-3,
,,,-2.2780001E-3,-2.3999999,,,,,-2.2780001E-3,-248.00001085E-3,
,,,-2.2760001E-3,-2.3999999,,,,,-2.2760001E-3,-240.00000954E-3,
,,,-2.2740001E-3,-2.3999999,,,,,-2.2740001E-3,-248.00001085E-3,
,,,-2.2720001E-3,-2.3999999,,,,,-2.2720001E-3,-256.00001216E-3,
,,,-2.2700003E-3,-2.3999999,,,,,-2.2700003E-3,-248.00001085E-3,
,,,-2.2680003E-3,-2.3999999,,,,,-2.2680003E-3,-272.00001478E-3,
,,,-2.2660003E-3,-2.3999999,,,,,-2.2660003E-3,-263.99999857E-3,
,,,-2.2640002E-3,-2.3999999,,,,,-2.2640002E-3,-248.00001085E-3,
,,,-2.2620002E-3,-2.3999999,,,,,-2.2620002E-3,-256.00001216E-3,
,,,-2.2600002E-3,-2.3999999,,,,,-2.2600002E-3,-248.00001085E-3,
,,,-2.2580002E-3,-2.3999999,,,,,-2.2580002E-3,-232.00000823E-3,
,,,-2.2560002E-3,-2.3999999,,,,,-2.2560002E-3,-248.00001085E-3,
,,,-2.2540002E-3,-2.3999999,,,,,-2.2540002E-3,-224.00000691E-3,
,,,-2.2520002E-3,-2.3999999,,,,,-2.2520002E-3,-232.00000823E-3,
,,,-2.2500001E-3,-2.3999999,,,,,-2.2500001E-3,-224.00000691E-3,
,,,-2.2480001E-3,-2.3999999,,,,,-2.2480001E-3,-232.00000823E-3,
,,,-2.2460001E-3,-2.3999999,,,,,-2.2460001E-3,-240.00000954E-3,
,,,-2.2440001E-3,-2.3999999,,,,,-2.2440001E-3,-232.00000823E-3,
,,,-2.2420001E-3,-2.3199999,,,,,-2.2420001E-3,-208.00000429E-3,
,,,-2.2400003E-3,-2.3199999,,,,,-2.2400003E-3,-208.00000429E-3,
,,,-2.2380003E-3,-2.3199999,,,,,-2.2380003E-3,-200.00000298E-3,
,,,-2.2360003E-3,-2.3199999,,,,,-2.2360003E-3,-192.00000167E-3,
,,,-2.2340002E-3,-2.3199999,,,,,-2.2340002E-3,-208.00000429E-3,
,,,-2.2320002E-3,-2.3199999,,,,,-2.2320002E-3,-192.00000167E-3,
,,,-2.2300002E-3,-2.3199999,,,,,-2.2300002E-3,-192.00000167E-3,
,,,-2.2280002E-3,-2.3199999,,,,,-2.2280002E-3,-224.00000691E-3,
,,,-2.2260002E-3,-2.2400000,,,,,-2.2260002E-3,-192.00000167E-3,
,,,-2.2240002E-3,-2.2400000,,,,,-2.2240002E-3,-192.00000167E-3,
,,,-2.2220002E-3,-2.3199999,,,,,-2.2220002E-3,-208.00000429E-3,
,,,-2.2200001E-3,-2.2400000,,,,,-2.2200001E-3,-192.00000167E-3,
,,,-2.2180001E-3,-2.2400000,,,,,-2.2180001E-3,-184.00001526E-3,
,,,-2.2160001E-3,-2.1599998,,,,,-2.2160001E-3,-208.00000429E-3,
,,,-2.2140001E-3,-2.2400000,,,,,-2.2140001E-3,-200.00000298E-3,
,,,-2.2120001E-3,-2.2400000,,,,,-2.2120001E-3,-208.00000429E-3,
,,,-2.2100001E-3,-2.1599998,,,,,-2.2100001E-3,-216.00000560E-3,
,,,-2.2080003E-3,-2.1599998,,,,,-2.2080003E-3,-192.00000167E-3,
,,,-2.2060003E-3,-2.1599998,,,,,-2.2060003E-3,-184.00001526E-3,
,,,-2.2040003E-3,-2.1599998,,,,,-2.2040003E-3,-192.00000167E-3,
,,,-2.2020002E-3,-2.1599998,,,,,-2.2020002E-3,-160.00001132E-3,
,,,-2.2000002E-3,-2.1599998,,,,,-2.2000002E-3,-160.00001132E-3,
,,,-2.1980002E-3,-2.1599998,,,,,-2.1980002E-3,-184.00001526E-3,
,,,-2.1960002E-3,-2.1599998,,,,,-2.1960002E-3,-152.00001001E-3,
,,,-2.1940002E-3,-2.0799999,,,,,-2.1940002E-3,-144.0000087E-3,
,,,-2.1920002E-3,-2.0799999,,,,,-2.1920002E-3,-160.00001132E-3,
,,,-2.1900001E-3,-2.0799999,,,,,-2.1900001E-3,-144.0000087E-3,
,,,-2.1880001E-3,-2.0799999,,,,,-2.1880001E-3,-144.0000087E-3,
,,,-2.1860001E-3,-2.0799999,,,,,-2.1860001E-3,-160.00001132E-3,
,,,-2.1840001E-3,-2.0000000,,,,,-2.1840001E-3,-144.0000087E-3,
,,,-2.1820001E-3,-2.0000000,,,,,-2.1820001E-3,-152.00001001E-3,
,,,-2.1800001E-3,-2.0000000,,,,,-2.1800001E-3,-152.00001001E-3,
,,,-2.1780003E-3,-1.9200000,,,,,-2.1780003E-3,-136.0000074E-3,
,,,-2.1760003E-3,-2.0000000,,,,,-2.1760003E-3,-144.0000087E-3,
,,,-2.1740003E-3,-2.0000000,,,,,-2.1740003E-3,-152.00001001E-3,
,,,-2.1720002E-3,-1.9200000,,,,,-2.1720002E-3,-128.0000061E-3,
,,,-2.1700002E-3,-1.9200000,,,,,-2.1700002E-3,-136.0000074E-3,
,,,-2.1680002E-3,-1.9200000,,,,,-2.1680002E-3,-136.0000074E-3,
,,,-2.1660002E-3,-1.8399999,,,,,-2.1660002E-3,-112.0000035E-3,
,,,-2.1640002E-3,-1.8399999,,,,,-2.1640002E-3,-128.0000061E-3,
,,,-2.1620002E-3,-1.8399999,,,,,-2.1620002E-3,-104.0000021E-3,
,,,-2.1600001E-3,-1.8399999,,,,,-2.1600001E-3,-96.000000834E-3,
,,,-2.1580001E-3,-1.8399999,,,,,-2.1580001E-3,-112.0000035E-3,
,,,-2.1560001E-3,-1.7600000,,,,,-2.1560001E-3,-112.0000035E-3,
,,,-2.1540001E-3,-1.6799999,,,,,-2.1540001E-3,-96.000000834E-3,
,,,-2.1520001E-3,-1.6799999,,,,,-2.1520001E-3,-104.0000021E-3,
,,,-2.1500001E-3,-1.6799999,,,,,-2.1500001E-3,-104.0000021E-3,
,,,-2.1480003E-3,-1.6799999,,,,,-2.1480003E-3,-104.0000021E-3,
,,,-2.1460003E-3,-1.6799999,,,,,-2.1460003E-3,-64.000003040E-3,
,,,-2.1440003E-3,-1.6799999,,,,,-2.1440003E-3,-88.000006974E-3,
,,,-2.1420002E-3,-1.5999999,,,,,-2.1420002E-3,-88.000006974E-3,
,,,-2.1400002E-3,-1.5999999,,,,,-2.1400002E-3,-56.000001729E-3,
,,,-2.1380002E-3,-1.5200000,,,,,-2.1380002E-3,-48.00000042E-3,
,,,-2.1360002E-3,-1.5200000,,,,,-2.1360002E-3,-48.00000042E-3,
,,,-2.1340002E-3,-1.4399999,,,,,-2.1340002E-3,-40.00000283E-3,
,,,-2.1320002E-3,-1.4399999,,,,,-2.1320002E-3,-40.00000283E-3,
,,,-2.1300002E-3,-1.4399999,,,,,-2.1300002E-3,-32.00000152E-3,
,,,-2.1280001E-3,-1.4399999,,,,,-2.1280001E-3,-24.00000021E-3,
,,,-2.1260001E-3,-1.3600000,,,,,-2.1260001E-3,-48.00000042E-3,
,,,-2.1240001E-3,-1.4399999,,,,,-2.1240001E-3,-16.0000008E-3,
,,,-2.1220001E-3,-1.3600000,,,,,-2.1220001E-3,-8.000000380E-3,
,,,-2.1200001E-3,-1.3600000,,,,,-2.1200001E-3,-48.00000042E-3,
,,,-2.1180001E-3,-1.3600000,,,,,-2.1180001E-3,-16.0000008E-3,
,,,-2.1160003E-3,-1.2800000,,,,,-2.1160003E-3,-40.00000283E-3,
,,,-2.1140003E-3,-1.2800000,,,,,-2.1140003E-3,-32.00000152E-3,
,,,-2.1120002E-3,-1.2800000,,,,,-2.1120002E-3,-16.0000008E-3,
,,,-2.1100002E-3,-1.1999999,,,,,-2.1100002E-3,-48.00000042E-3,
,,,-2.1080002E-3,-1.1999999,,,,,-2.1080002E-3,-32.00000152E-3,
,,,-2.1060002E-3,-1.1999999,,,,,-2.1060002E-3,-16.0000008E-3,
,,,-2.1040002E-3,-1.1200000,,,,,-2.1040002E-3,-16.0000008E-3,
,,,-2.1020002E-3,-1.0400000,,,,,-2.1020002E-3,-16.0000008E-3,
,,,-2.1000002E-3,-1.1200000,,,,,-2.1000002E-3,-8.000000380E-3,
,,,-2.0980001E-3,-1.0400000,,,,,-2.0980001E-3,-8.000000380E-3,
,,,-2.0960001E-3,-1.0400000,,,,,-2.0960001E-3,0.0,
,,,-2.0940001E-3,-959.999978542E-3,,,,,-2.0940001E-3,0.0,
,,,-2.0920001E-3,-959.999978542E-3,,,,,-2.0920001E-3,8.000000380E-3,
,,,-2.0900001E-3,-959.999978542E-3,,,,,-2.0900001E-3,0.0,
,,,-2.0880001E-3,-879.999995232E-3,,,,,-2.0880001E-3,16.0000008E-3,
,,,-2.0860003E-3,-879.999995232E-3,,,,,-2.0860003E-3,32.00000152E-3,
,,,-2.0840003E-3,-879.999995232E-3,,,,,-2.0840003E-3,24.00000021E-3,
,,,-2.0820003E-3,-799.999952316E-3,,,,,-2.0820003E-3,16.0000008E-3,
,,,-2.0800002E-3,-799.999952316E-3,,,,,-2.0800002E-3,32.00000152E-3,
,,,-2.0780002E-3,-799.999952316E-3,,,,,-2.0780002E-3,16.0000008E-3,
,,,-2.0760002E-3,-799.999952316E-3,,,,,-2.0760002E-3,16.0000008E-3,
,,,-2.0740002E-3,-719.999969006E-3,,,,,-2.0740002E-3,24.00000021E-3,
,,,-2.0720002E-3,-639.999985695E-3,,,,,-2.0720002E-3,24.00000021E-3,
,,,-2.0700002E-3,-639.999985695E-3,,,,,-2.0700002E-3,64.000003040E-3,
,,,-2.0680001E-3,-639.999985695E-3,,,,,-2.0680001E-3,40.00000283E-3,
,,,-2.0660001E-3,-560.000002384E-3,,,,,-2.0660001E-3,40.00000283E-3,
,,,-2.0640001E-3,-560.000002384E-3,,,,,-2.0640001E-3,80.000005662E-3,
,,,-2.0620001E-3,-560.000002384E-3,,,,,-2.0620001E-3,72.000004351E-3,
,,,-2.0600001E-3,-479.999989271E-3,,,,,-2.0600001E-3,104.0000021E-3,
,,,-2.0580001E-3,-479.999989271E-3,,,,,-2.0580001E-3,96.000000834E-3,
,,,-2.0560003E-3,-479.999989271E-3,,,,,-2.0560003E-3,88.000006974E-3,
,,,-2.0540003E-3,-399.99997616E-3,,,,,-2.0540003E-3,96.000000834E-3,
,,,-2.0520003E-3,-399.99997616E-3,,,,,-2.0520003E-3,104.0000021E-3,
,,,-2.0500002E-3,-319.99999285E-3,,,,,-2.0500002E-3,96.000000834E-3,
,,,-2.0480002E-3,-319.99999285E-3,,,,,-2.0480002E-3,96.000000834E-3,
,,,-2.0460002E-3,-319.99999285E-3,,,,,-2.0460002E-3,104.0000021E-3,
,,,-2.0440002E-3,-239.99999464E-3,,,,,-2.0440002E-3,104.0000021E-3,
,,,-2.0420002E-3,-159.99999642E-3,,,,,-2.0420002E-3,104.0000021E-3,
,,,-2.0400002E-3,-239.99999464E-3,,,,,-2.0400002E-3,112.0000035E-3,
,,,-2.0380002E-3,-159.99999642E-3,,,,,-2.0380002E-3,120.0000048E-3,
,,,-2.0360001E-3,-159.99999642E-3,,,,,-2.0360001E-3,112.0000035E-3,
,,,-2.0340001E-3,-79.999998212E-3,,,,,-2.0340001E-3,136.0000074E-3,
,,,-2.0320001E-3,-79.999998212E-3,,,,,-2.0320001E-3,128.0000061E-3,
,,,-2.0300001E-3,0.0,,,,,-2.0300001E-3,120.0000048E-3,
,,,-2.0280001E-3,0.0,,,,,-2.0280001E-3,128.0000061E-3,
,,,-2.0260003E-3,79.999998212E-3,,,,,-2.0260003E-3,136.0000074E-3,
,,,-2.0240003E-3,0.0,,,,,-2.0240003E-3,136.0000074E-3,
,,,-2.0220003E-3,79.999998212E-3,,,,,-2.0220003E-3,160.00001132E-3,
,,,-2.0200002E-3,79.999998212E-3,,,,,-2.0200002E-3,160.00001132E-3,
,,,-2.0180002E-3,159.99999642E-3,,,,,-2.0180002E-3,152.00001001E-3,
,,,-2.0160002E-3,159.99999642E-3,,,,,-2.0160002E-3,176.00001395E-3,
,,,-2.0140002E-3,239.99999464E-3,,,,,-2.0140002E-3,128.0000061E-3,
,,,-2.0120002E-3,159.99999642E-3,,,,,-2.0120002E-3,152.00001001E-3,
,,,-2.0100002E-3,239.99999464E-3,,,,,-2.0100002E-3,160.00001132E-3,
,,,-2.0080002E-3,319.99999285E-3,,,,,-2.0080002E-3,136.0000074E-3,
,,,-2.0060001E-3,319.99999285E-3,,,,,-2.0060001E-3,152.00001001E-3,
,,,-2.0040001E-3,399.99997616E-3,,,,,-2.0040001E-3,144.0000087E-3,
,,,-2.0020001E-3,399.99997616E-3,,,,,-2.0020001E-3,136.0000074E-3,
,,,-2.0000001E-3,399.99997616E-3,,,,,-2.0000001E-3,160.00001132E-3,
,,,-1.9980001E-3,479.999989271E-3,,,,,-1.9980001E-3,144.0000087E-3,
,,,-1.9960001E-3,479.999989271E-3,,,,,-1.9960001E-3,136.0000074E-3,
,,,-1.9940003E-3,479.999989271E-3,,,,,-1.9940003E-3,176.00001395E-3,
,,,-1.9920003E-3,479.999989271E-3,,,,,-1.9920003E-3,176.00001395E-3,
,,,-1.9900003E-3,560.000002384E-3,,,,,-1.9900003E-3,176.00001395E-3,
,,,-1.9880002E-3,560.000002384E-3,,,,,-1.9880002E-3,192.00000167E-3,
,,,-1.9860002E-3,560.000002384E-3,,,,,-1.9860002E-3,200.00000298E-3,
,,,-1.9840002E-3,639.999985695E-3,,,,,-1.9840002E-3,192.00000167E-3,
,,,-1.9820002E-3,719.999969006E-3,,,,,-1.9820002E-3,184.00001526E-3,
,,,-1.9800002E-3,719.999969006E-3,,,,,-1.9800002E-3,192.00000167E-3,
,,,-1.9780002E-3,719.999969006E-3,,,,,-1.9780002E-3,184.00001526E-3,
,,,-1.9760001E-3,719.999969006E-3,,,,,-1.9760001E-3,184.00001526E-3,
,,,-1.9740001E-3,799.999952316E-3,,,,,-1.9740001E-3,208.00000429E-3,
,,,-1.9720001E-3,719.999969006E-3,,,,,-1.9720001E-3,192.00000167E-3,
,,,-1.9700001E-3,879.999995232E-3,,,,,-1.9700001E-3,200.00000298E-3,
,,,-1.9680001E-3,879.999995232E-3,,,,,-1.9680001E-3,216.00000560E-3,
,,,-1.9660001E-3,879.999995232E-3,,,,,-1.9660001E-3,224.00000691E-3,
,,,-1.9640003E-3,959.999978542E-3,,,,,-1.9640003E-3,240.00000954E-3,
,,,-1.9620003E-3,959.999978542E-3,,,,,-1.9620003E-3,224.00000691E-3,
,,,-1.9600003E-3,959.999978542E-3,,,,,-1.9600003E-3,208.00000429E-3,
,,,-1.9580002E-3,1.0400000,,,,,-1.9580002E-3,232.00000823E-3,
,,,-1.9560002E-3,1.0400000,,,,,-1.9560002E-3,216.00000560E-3,
,,,-1.9540002E-3,1.1200000,,,,,-1.9540002E-3,224.00000691E-3,
,,,-1.9520002E-3,1.1200000,,,,,-1.9520002E-3,263.99999857E-3,
,,,-1.9500002E-3,1.1200000,,,,,-1.9500002E-3,256.00001216E-3,
,,,-1.9480002E-3,1.1999999,,,,,-1.9480002E-3,256.00001216E-3,
,,,-1.9460001E-3,1.1999999,,,,,-1.9460001E-3,272.00001478E-3,
,,,-1.9440001E-3,1.1999999,,,,,-1.9440001E-3,263.99999857E-3,
,,,-1.9420002E-3,1.1999999,,,,,-1.9420002E-3,272.00001478E-3,
,,,-1.9400002E-3,1.2800000,,,,,-1.9400002E-3,272.00001478E-3,
,,,-1.9380002E-3,1.3600000,,,,,-1.9380002E-3,263.99999857E-3,
,,,-1.9360002E-3,1.3600000,,,,,-1.9360002E-3,280.00000119E-3,
,,,-1.9340002E-3,1.3600000,,,,,-1.9340002E-3,272.00001478E-3,
,,,-1.9320002E-3,1.3600000,,,,,-1.9320002E-3,263.99999857E-3,
,,,-1.9300001E-3,1.3600000,,,,,-1.9300001E-3,272.00001478E-3,
,,,-1.9280001E-3,1.4399999,,,,,-1.9280001E-3,248.00001085E-3,
,,,-1.9260002E-3,1.4399999,,,,,-1.9260002E-3,256.00001216E-3,
,,,-1.9240002E-3,1.5200000,,,,,-1.9240002E-3,272.00001478E-3,
,,,-1.9220002E-3,1.5200000,,,,,-1.9220002E-3,248.00001085E-3,
,,,-1.9200002E-3,1.5200000,,,,,-1.9200002E-3,248.00001085E-3,
,,,-1.9180002E-3,1.5200000,,,,,-1.9180002E-3,248.00001085E-3,
,,,-1.9160002E-3,1.5999999,,,,,-1.9160002E-3,248.00001085E-3,
,,,-1.9140001E-3,1.6799999,,,,,-1.9140001E-3,256.00001216E-3,
,,,-1.9120001E-3,1.5999999,,,,,-1.9120001E-3,263.99999857E-3,
,,,-1.9100002E-3,1.6799999,,,,,-1.9100002E-3,263.99999857E-3,
,,,-1.9080002E-3,1.6799999,,,,,-1.9080002E-3,280.00000119E-3,
,,,-1.9060002E-3,1.6799999,,,,,-1.9060002E-3,272.00001478E-3,
,,,-1.9040002E-3,1.6799999,,,,,-1.9040002E-3,272.00001478E-3,
